^F:\PROGRAMS\VISUAL STUDIO\PROJECTS\ECF\EXAMPLES\ECF-NEURALNETWOK\NEURALNETWORK\ACTIVATIONFUNCTIONS\LINEARFUNCTION.CPP|F:\PROGRAMS\VISUAL STUDIO\PROJECTS\ECF\EXAMPLES\ECF-NEURALNETWOK\NEURALNETWORK\ACTIVATIONFUNCTIONS\SIGMOIDFUNCTION.CPP|F:\PROGRAMS\VISUAL STUDIO\PROJECTS\ECF\EXAMPLES\ECF-NEURALNETWOK\NEURALNETWORK\ACTIVATIONFUNCTIONS\SINEFUNCTION.CPP|F:\PROGRAMS\VISUAL STUDIO\PROJECTS\ECF\EXAMPLES\ECF-NEURALNETWOK\NEURALNETWORK\CROSSOVERS\CRSLAYER.CPP|F:\PROGRAMS\VISUAL STUDIO\PROJECTS\ECF\EXAMPLES\ECF-NEURALNETWOK\NEURALNETWORK\CROSSOVERS\CRSNEURON.CPP|F:\PROGRAMS\VISUAL STUDIO\PROJECTS\ECF\EXAMPLES\ECF-NEURALNETWOK\NEURALNETWORK\CROSSOVERS\CRSNEURONUNIFORM.CPP|F:\PROGRAMS\VISUAL STUDIO\PROJECTS\ECF\EXAMPLES\ECF-NEURALNETWOK\NEURALNETWORK\FUNCTIONMINEVALOP.CPP|F:\PROGRAMS\VISUAL STUDIO\PROJECTS\ECF\EXAMPLES\ECF-NEURALNETWOK\NEURALNETWORK\MAIN.CPP|F:\PROGRAMS\VISUAL STUDIO\PROJECTS\ECF\EXAMPLES\ECF-NEURALNETWOK\NEURALNETWORK\MUTATIONS\MUTNEURON.CPP|F:\PROGRAMS\VISUAL STUDIO\PROJECTS\ECF\EXAMPLES\ECF-NEURALNETWOK\NEURALNETWORK\MUTATIONS\MUTNEURONN.CPP|F:\PROGRAMS\VISUAL STUDIO\PROJECTS\ECF\EXAMPLES\ECF-NEURALNETWOK\NEURALNETWORK\MUTATIONS\MUTSCALE.CPP|F:\PROGRAMS\VISUAL STUDIO\PROJECTS\ECF\EXAMPLES\ECF-NEURALNETWOK\NEURALNETWORK\NEURALNETWORK.CPP
F:\PROGRAMS\VISUAL STUDIO\PROJECTS\ECF\EXAMPLES\ECF-NEURALNETWOK\NEURALNETWORK\VS\DEBUG\VC140.PDB
F:\PROGRAMS\VISUAL STUDIO\PROJECTS\ECF\EXAMPLES\ECF-NEURALNETWOK\NEURALNETWORK\VS\DEBUG\VC140.IDB
F:\PROGRAMS\VISUAL STUDIO\PROJECTS\ECF\EXAMPLES\ECF-NEURALNETWOK\NEURALNETWORK\VS\DEBUG\LINEARFUNCTION.OBJ
F:\PROGRAMS\VISUAL STUDIO\PROJECTS\ECF\EXAMPLES\ECF-NEURALNETWOK\NEURALNETWORK\VS\DEBUG\SIGMOIDFUNCTION.OBJ
F:\PROGRAMS\VISUAL STUDIO\PROJECTS\ECF\EXAMPLES\ECF-NEURALNETWOK\NEURALNETWORK\VS\DEBUG\SINEFUNCTION.OBJ
F:\PROGRAMS\VISUAL STUDIO\PROJECTS\ECF\EXAMPLES\ECF-NEURALNETWOK\NEURALNETWORK\VS\DEBUG\CRSLAYER.OBJ
F:\PROGRAMS\VISUAL STUDIO\PROJECTS\ECF\EXAMPLES\ECF-NEURALNETWOK\NEURALNETWORK\VS\DEBUG\CRSNEURON.OBJ
F:\PROGRAMS\VISUAL STUDIO\PROJECTS\ECF\EXAMPLES\ECF-NEURALNETWOK\NEURALNETWORK\VS\DEBUG\CRSNEURONUNIFORM.OBJ
F:\PROGRAMS\VISUAL STUDIO\PROJECTS\ECF\EXAMPLES\ECF-NEURALNETWOK\NEURALNETWORK\VS\DEBUG\FUNCTIONMINEVALOP.OBJ
F:\PROGRAMS\VISUAL STUDIO\PROJECTS\ECF\EXAMPLES\ECF-NEURALNETWOK\NEURALNETWORK\VS\DEBUG\MAIN.OBJ
F:\PROGRAMS\VISUAL STUDIO\PROJECTS\ECF\EXAMPLES\ECF-NEURALNETWOK\NEURALNETWORK\VS\DEBUG\MUTNEURON.OBJ
F:\PROGRAMS\VISUAL STUDIO\PROJECTS\ECF\EXAMPLES\ECF-NEURALNETWOK\NEURALNETWORK\VS\DEBUG\MUTNEURONN.OBJ
F:\PROGRAMS\VISUAL STUDIO\PROJECTS\ECF\EXAMPLES\ECF-NEURALNETWOK\NEURALNETWORK\VS\DEBUG\MUTSCALE.OBJ
F:\PROGRAMS\VISUAL STUDIO\PROJECTS\ECF\EXAMPLES\ECF-NEURALNETWOK\NEURALNETWORK\VS\DEBUG\NEURALNETWORK.OBJ
^F:\PROGRAMS\VISUAL STUDIO\PROJECTS\ECF\EXAMPLES\ECF-NEURALNETWOK\NEURALNETWORK\ACTIVATIONFUNCTIONS\LINEARFUNCTION.CPP
F:\PROGRAMS\VISUAL STUDIO\PROJECTS\ECF\EXAMPLES\ECF-NEURALNETWOK\NEURALNETWORK\VS\DEBUG\VC140.PDB
^F:\PROGRAMS\VISUAL STUDIO\PROJECTS\ECF\EXAMPLES\ECF-NEURALNETWOK\NEURALNETWORK\ACTIVATIONFUNCTIONS\SIGMOIDFUNCTION.CPP
F:\PROGRAMS\VISUAL STUDIO\PROJECTS\ECF\EXAMPLES\ECF-NEURALNETWOK\NEURALNETWORK\VS\DEBUG\VC140.PDB
^F:\PROGRAMS\VISUAL STUDIO\PROJECTS\ECF\EXAMPLES\ECF-NEURALNETWOK\NEURALNETWORK\ACTIVATIONFUNCTIONS\SINEFUNCTION.CPP
F:\PROGRAMS\VISUAL STUDIO\PROJECTS\ECF\EXAMPLES\ECF-NEURALNETWOK\NEURALNETWORK\VS\DEBUG\VC140.PDB
^F:\PROGRAMS\VISUAL STUDIO\PROJECTS\ECF\EXAMPLES\ECF-NEURALNETWOK\NEURALNETWORK\CROSSOVERS\CRSLAYER.CPP
F:\PROGRAMS\VISUAL STUDIO\PROJECTS\ECF\EXAMPLES\ECF-NEURALNETWOK\NEURALNETWORK\VS\DEBUG\VC140.PDB
F:\PROGRAMS\VISUAL STUDIO\PROJECTS\ECF\EXAMPLES\ECF-NEURALNETWOK\NEURALNETWORK\VS\DEBUG\VC140.IDB
F:\PROGRAMS\VISUAL STUDIO\PROJECTS\ECF\EXAMPLES\ECF-NEURALNETWOK\NEURALNETWORK\VS\DEBUG\CRSLAYER.OBJ
^F:\PROGRAMS\VISUAL STUDIO\PROJECTS\ECF\EXAMPLES\ECF-NEURALNETWOK\NEURALNETWORK\CROSSOVERS\CRSNEURON.CPP
F:\PROGRAMS\VISUAL STUDIO\PROJECTS\ECF\EXAMPLES\ECF-NEURALNETWOK\NEURALNETWORK\VS\DEBUG\VC140.PDB
^F:\PROGRAMS\VISUAL STUDIO\PROJECTS\ECF\EXAMPLES\ECF-NEURALNETWOK\NEURALNETWORK\CROSSOVERS\CRSNEURONUNIFORM.CPP
F:\PROGRAMS\VISUAL STUDIO\PROJECTS\ECF\EXAMPLES\ECF-NEURALNETWOK\NEURALNETWORK\VS\DEBUG\VC140.PDB
^F:\PROGRAMS\VISUAL STUDIO\PROJECTS\ECF\EXAMPLES\ECF-NEURALNETWOK\NEURALNETWORK\FUNCTIONMINEVALOP.CPP
F:\PROGRAMS\VISUAL STUDIO\PROJECTS\ECF\EXAMPLES\ECF-NEURALNETWOK\NEURALNETWORK\VS\DEBUG\VC140.PDB
^F:\PROGRAMS\VISUAL STUDIO\PROJECTS\ECF\EXAMPLES\ECF-NEURALNETWOK\NEURALNETWORK\MAIN.CPP
F:\PROGRAMS\VISUAL STUDIO\PROJECTS\ECF\EXAMPLES\ECF-NEURALNETWOK\NEURALNETWORK\VS\DEBUG\VC140.PDB
F:\PROGRAMS\VISUAL STUDIO\PROJECTS\ECF\EXAMPLES\ECF-NEURALNETWOK\NEURALNETWORK\VS\DEBUG\VC140.IDB
F:\PROGRAMS\VISUAL STUDIO\PROJECTS\ECF\EXAMPLES\ECF-NEURALNETWOK\NEURALNETWORK\VS\DEBUG\MAIN.OBJ
^F:\PROGRAMS\VISUAL STUDIO\PROJECTS\ECF\EXAMPLES\ECF-NEURALNETWOK\NEURALNETWORK\MUTATIONS\MUTNEURON.CPP
F:\PROGRAMS\VISUAL STUDIO\PROJECTS\ECF\EXAMPLES\ECF-NEURALNETWOK\NEURALNETWORK\VS\DEBUG\VC140.PDB
^F:\PROGRAMS\VISUAL STUDIO\PROJECTS\ECF\EXAMPLES\ECF-NEURALNETWOK\NEURALNETWORK\MUTATIONS\MUTNEURONN.CPP
F:\PROGRAMS\VISUAL STUDIO\PROJECTS\ECF\EXAMPLES\ECF-NEURALNETWOK\NEURALNETWORK\VS\DEBUG\VC140.PDB
^F:\PROGRAMS\VISUAL STUDIO\PROJECTS\ECF\EXAMPLES\ECF-NEURALNETWOK\NEURALNETWORK\MUTATIONS\MUTSCALE.CPP
F:\PROGRAMS\VISUAL STUDIO\PROJECTS\ECF\EXAMPLES\ECF-NEURALNETWOK\NEURALNETWORK\VS\DEBUG\VC140.PDB
^F:\PROGRAMS\VISUAL STUDIO\PROJECTS\ECF\EXAMPLES\ECF-NEURALNETWOK\NEURALNETWORK\NEURALNETWORK.CPP
F:\PROGRAMS\VISUAL STUDIO\PROJECTS\ECF\EXAMPLES\ECF-NEURALNETWOK\NEURALNETWORK\VS\DEBUG\VC140.PDB
F:\PROGRAMS\VISUAL STUDIO\PROJECTS\ECF\EXAMPLES\ECF-NEURALNETWOK\NEURALNETWORK\VS\DEBUG\VC140.IDB
^F:\PROGRAMS\VISUAL STUDIO\PROJECTS\ECF\EXAMPLES\ECF-NEURALNETWOK\NEURALNETWORK\CROSSOVERS\CRSLAYER.CPP|F:\PROGRAMS\VISUAL STUDIO\PROJECTS\ECF\EXAMPLES\ECF-NEURALNETWOK\NEURALNETWORK\CROSSOVERS\CRSNEURON.CPP|F:\PROGRAMS\VISUAL STUDIO\PROJECTS\ECF\EXAMPLES\ECF-NEURALNETWOK\NEURALNETWORK\CROSSOVERS\CRSNEURONUNIFORM.CPP|F:\PROGRAMS\VISUAL STUDIO\PROJECTS\ECF\EXAMPLES\ECF-NEURALNETWOK\NEURALNETWORK\FUNCTIONMINEVALOP.CPP|F:\PROGRAMS\VISUAL STUDIO\PROJECTS\ECF\EXAMPLES\ECF-NEURALNETWOK\NEURALNETWORK\MAIN.CPP|F:\PROGRAMS\VISUAL STUDIO\PROJECTS\ECF\EXAMPLES\ECF-NEURALNETWOK\NEURALNETWORK\MUTATIONS\MUTNEURON.CPP|F:\PROGRAMS\VISUAL STUDIO\PROJECTS\ECF\EXAMPLES\ECF-NEURALNETWOK\NEURALNETWORK\MUTATIONS\MUTNEURONN.CPP|F:\PROGRAMS\VISUAL STUDIO\PROJECTS\ECF\EXAMPLES\ECF-NEURALNETWOK\NEURALNETWORK\MUTATIONS\MUTSCALE.CPP|F:\PROGRAMS\VISUAL STUDIO\PROJECTS\ECF\EXAMPLES\ECF-NEURALNETWOK\NEURALNETWORK\NEURALNETWORK.CPP
F:\PROGRAMS\VISUAL STUDIO\PROJECTS\ECF\EXAMPLES\ECF-NEURALNETWOK\NEURALNETWORK\VS\DEBUG\VC140.PDB
F:\PROGRAMS\VISUAL STUDIO\PROJECTS\ECF\EXAMPLES\ECF-NEURALNETWOK\NEURALNETWORK\VS\DEBUG\VC140.IDB
F:\PROGRAMS\VISUAL STUDIO\PROJECTS\ECF\EXAMPLES\ECF-NEURALNETWOK\NEURALNETWORK\VS\DEBUG\CRSLAYER.OBJ
F:\PROGRAMS\VISUAL STUDIO\PROJECTS\ECF\EXAMPLES\ECF-NEURALNETWOK\NEURALNETWORK\VS\DEBUG\CRSNEURON.OBJ
F:\PROGRAMS\VISUAL STUDIO\PROJECTS\ECF\EXAMPLES\ECF-NEURALNETWOK\NEURALNETWORK\VS\DEBUG\CRSNEURONUNIFORM.OBJ
F:\PROGRAMS\VISUAL STUDIO\PROJECTS\ECF\EXAMPLES\ECF-NEURALNETWOK\NEURALNETWORK\VS\DEBUG\FUNCTIONMINEVALOP.OBJ
F:\PROGRAMS\VISUAL STUDIO\PROJECTS\ECF\EXAMPLES\ECF-NEURALNETWOK\NEURALNETWORK\VS\DEBUG\MUTNEURON.OBJ
F:\PROGRAMS\VISUAL STUDIO\PROJECTS\ECF\EXAMPLES\ECF-NEURALNETWOK\NEURALNETWORK\VS\DEBUG\MUTNEURONN.OBJ
F:\PROGRAMS\VISUAL STUDIO\PROJECTS\ECF\EXAMPLES\ECF-NEURALNETWOK\NEURALNETWORK\VS\DEBUG\MUTSCALE.OBJ
F:\PROGRAMS\VISUAL STUDIO\PROJECTS\ECF\EXAMPLES\ECF-NEURALNETWOK\NEURALNETWORK\VS\DEBUG\NEURALNETWORK.OBJ
F:\PROGRAMS\VISUAL STUDIO\PROJECTS\ECF\EXAMPLES\ECF-NEURALNETWOK\NEURALNETWORK\VS\DEBUG\MAIN.OBJ
^F:\PROGRAMS\VISUAL STUDIO\PROJECTS\ECF\EXAMPLES\ECF-NEURALNETWOK\NEURALNETWORK\MAIN.CPP|F:\PROGRAMS\VISUAL STUDIO\PROJECTS\ECF\EXAMPLES\ECF-NEURALNETWOK\NEURALNETWORK\NEURALNETWORK.CPP
F:\PROGRAMS\VISUAL STUDIO\PROJECTS\ECF\EXAMPLES\ECF-NEURALNETWOK\NEURALNETWORK\VS\DEBUG\VC140.PDB
F:\PROGRAMS\VISUAL STUDIO\PROJECTS\ECF\EXAMPLES\ECF-NEURALNETWOK\NEURALNETWORK\VS\DEBUG\VC140.IDB
F:\PROGRAMS\VISUAL STUDIO\PROJECTS\ECF\EXAMPLES\ECF-NEURALNETWOK\NEURALNETWORK\VS\DEBUG\NEURALNETWORK.OBJ
F:\PROGRAMS\VISUAL STUDIO\PROJECTS\ECF\EXAMPLES\ECF-NEURALNETWOK\NEURALNETWORK\VS\DEBUG\MAIN.OBJ
^F:\PROGRAMS\VISUAL STUDIO\PROJECTS\ECF\EXAMPLES\ECF-NEURALNETWOK\NEURALNETWORK\CROSSOVERS\CRSNEURON.CPP|F:\PROGRAMS\VISUAL STUDIO\PROJECTS\ECF\EXAMPLES\ECF-NEURALNETWOK\NEURALNETWORK\CROSSOVERS\CRSNEURONUNIFORM.CPP
