//private double NN_evaluate(double[] context)
        //{
        //    List<List<double>> Outputs = new List<List<double>>();

        //    // Store the inputs as outputs of the 1st layer.
        //    List<double> thisOutputs1 = new List<double>();

        //    for (int inp = 0; inp < context.Length; inp++)
        //        thisOutputs1.Add(context[inp]);

        //    Outputs.Add(thisOutputs1);


        //    // Calculate rest of the neuron outputs.
        //    for (int layer = 2; layer <= structure.Length; layer++)
        //    {
        //        List<double> thisOutputs = new List<double>(); // Outputs for this layer.

        //        for (int neuron = 1; neuron <= structure[layer - 1]; neuron++)
        //        {
        //            // Weights of a single neuron in this layer.
        //            List<double> weights = getWeights(layer, neuron);

        //            double sum = weights.ElementAt(0); // Bias value is just added.
        //            for (int w = 1; w < weights.Count; w++)
        //                sum += weights.ElementAt(w) * Outputs.ElementAt(Outputs.Count-1)[w - 1]; // Last layers outputs are this layers neuron inputs.

        //            //applying the sigmoid function
        //            if (layer != structure.Length)
        //            {
        //                sum = 1 / (1 + Math.Exp(-sum));
        //            }

        //            thisOutputs.Add(sum); // Stores all the sums for this layer.
        //        }

        //        Outputs.Add(thisOutputs); // Add the neuron outputs for each layer.
        //    }
        //    List<double> lastLayer = Outputs.ElementAt(Outputs.Count-1);
        //    return lastLayer.ElementAt(lastLayer.Count-1);
        //}



        //staviti da se double[] prima kao referenca ako treba poboljsati preformanse
        //private List<double> getWeights(int layer, int neuron)
        //{
        //    layer--;
        //    neuron--;
        //    List<double> w = new List<double>();
        //    int position = 0;
        //    int l = 0;
        //    for (l = 1; l < layer; l++)
        //    {
        //        position += (1 + structure[l - 1]) * structure[l];
        //    }
        //    position += (1 + structure[l - 1]) * neuron;

        //    for (uint i = 0; i < 1 + structure[l - 1]; i++)
        //    {
        //        w.Add(weights[position + i]);
        //    }
        //    return w;
        //}