^C:\USERS\IVONA\DESKTOP\ECF_1.4.1\ECF_1.4.1\EXAMPLES\GPSPACEFLIGHT\SPACEFLIGHT.GP\MAIN.CPP
C:\USERS\IVONA\DESKTOP\ECF_1.4.1\ECF_1.4.1\EXAMPLES\GPSPACEFLIGHT\SPACEFLIGHT.GP\DEBUG\VC140.PDB
C:\USERS\IVONA\DESKTOP\ECF_1.4.1\ECF_1.4.1\EXAMPLES\GPSPACEFLIGHT\SPACEFLIGHT.GP\DEBUG\MAIN.OBJ
^C:\USERS\IVONA\DESKTOP\ECF_1.4.1\ECF_1.4.1\NEURALNETWORK\CROSSOVERS\CRSLAYER.CPP|C:\USERS\IVONA\DESKTOP\ECF_1.4.1\ECF_1.4.1\NEURALNETWORK\CROSSOVERS\CRSNEURON.CPP|C:\USERS\IVONA\DESKTOP\ECF_1.4.1\ECF_1.4.1\NEURALNETWORK\CROSSOVERS\CRSNEURONUNIFORM.CPP|C:\USERS\IVONA\DESKTOP\ECF_1.4.1\ECF_1.4.1\NEURALNETWORK\MAIN.CPP|C:\USERS\IVONA\DESKTOP\ECF_1.4.1\ECF_1.4.1\NEURALNETWORK\MUTATIONS\MUTNEURON.CPP|C:\USERS\IVONA\DESKTOP\ECF_1.4.1\ECF_1.4.1\NEURALNETWORK\MUTATIONS\MUTNEURONN.CPP|C:\USERS\IVONA\DESKTOP\ECF_1.4.1\ECF_1.4.1\NEURALNETWORK\MUTATIONS\MUTSCALE.CPP|C:\USERS\IVONA\DESKTOP\ECF_1.4.1\ECF_1.4.1\NEURALNETWORK\NEURALNETWORK.CPP
C:\USERS\IVONA\DESKTOP\ECF_1.4.1\ECF_1.4.1\NEURALNETWORK\GPSPACEFLIGHT-NN\SPACEFLIGHT.GP\DEBUG\VC140.PDB
C:\USERS\IVONA\DESKTOP\ECF_1.4.1\ECF_1.4.1\NEURALNETWORK\GPSPACEFLIGHT-NN\SPACEFLIGHT.GP\DEBUG\NEURALNETWORK.OBJ
C:\USERS\IVONA\DESKTOP\ECF_1.4.1\ECF_1.4.1\NEURALNETWORK\GPSPACEFLIGHT-NN\SPACEFLIGHT.GP\DEBUG\MUTSCALE.OBJ
C:\USERS\IVONA\DESKTOP\ECF_1.4.1\ECF_1.4.1\NEURALNETWORK\GPSPACEFLIGHT-NN\SPACEFLIGHT.GP\DEBUG\MUTNEURONN.OBJ
C:\USERS\IVONA\DESKTOP\ECF_1.4.1\ECF_1.4.1\NEURALNETWORK\GPSPACEFLIGHT-NN\SPACEFLIGHT.GP\DEBUG\MUTNEURON.OBJ
C:\USERS\IVONA\DESKTOP\ECF_1.4.1\ECF_1.4.1\NEURALNETWORK\GPSPACEFLIGHT-NN\SPACEFLIGHT.GP\DEBUG\MAIN.OBJ
C:\USERS\IVONA\DESKTOP\ECF_1.4.1\ECF_1.4.1\NEURALNETWORK\GPSPACEFLIGHT-NN\SPACEFLIGHT.GP\DEBUG\CRSNEURONUNIFORM.OBJ
C:\USERS\IVONA\DESKTOP\ECF_1.4.1\ECF_1.4.1\NEURALNETWORK\GPSPACEFLIGHT-NN\SPACEFLIGHT.GP\DEBUG\CRSNEURON.OBJ
C:\USERS\IVONA\DESKTOP\ECF_1.4.1\ECF_1.4.1\NEURALNETWORK\GPSPACEFLIGHT-NN\SPACEFLIGHT.GP\DEBUG\CRSLAYER.OBJ
^C:\USERS\IVONA\DESKTOP\ECF_1.4.1\ECF_1.4.1\NEURALNETWORK\MAIN.CPP
C:\USERS\IVONA\DESKTOP\ECF_1.4.1\ECF_1.4.1\NEURALNETWORK\GPSPACEFLIGHT-NN\SPACEFLIGHT.GP\DEBUG\VC140.PDB
^C:\USERS\IVONA\DESKTOP\ECF_1.4.1\ECF_1.4.1\NEURALNETWORK\ACTIVATIONFUNCTIONS\LINEARFUNCTION.CPP|C:\USERS\IVONA\DESKTOP\ECF_1.4.1\ECF_1.4.1\NEURALNETWORK\ACTIVATIONFUNCTIONS\SIGMOIDFUNCTION.CPP|C:\USERS\IVONA\DESKTOP\ECF_1.4.1\ECF_1.4.1\NEURALNETWORK\ACTIVATIONFUNCTIONS\SINEFUNCTION.CPP
C:\USERS\IVONA\DESKTOP\ECF_1.4.1\ECF_1.4.1\NEURALNETWORK\GPSPACEFLIGHT-NN\SPACEFLIGHT.GP\DEBUG\VC140.PDB
C:\USERS\IVONA\DESKTOP\ECF_1.4.1\ECF_1.4.1\NEURALNETWORK\GPSPACEFLIGHT-NN\SPACEFLIGHT.GP\DEBUG\SINEFUNCTION.OBJ
C:\USERS\IVONA\DESKTOP\ECF_1.4.1\ECF_1.4.1\NEURALNETWORK\GPSPACEFLIGHT-NN\SPACEFLIGHT.GP\DEBUG\SIGMOIDFUNCTION.OBJ
C:\USERS\IVONA\DESKTOP\ECF_1.4.1\ECF_1.4.1\NEURALNETWORK\GPSPACEFLIGHT-NN\SPACEFLIGHT.GP\DEBUG\LINEARFUNCTION.OBJ
^C:\USERS\IVONA\DESKTOP\ECF_1.4.1\ECF_1.4.1\NEURALNETWORK\ACTIVATIONFUNCTIONS\LINEARFUNCTION.CPP|C:\USERS\IVONA\DESKTOP\ECF_1.4.1\ECF_1.4.1\NEURALNETWORK\ACTIVATIONFUNCTIONS\SIGMOIDFUNCTION.CPP|C:\USERS\IVONA\DESKTOP\ECF_1.4.1\ECF_1.4.1\NEURALNETWORK\ACTIVATIONFUNCTIONS\SINEFUNCTION.CPP|C:\USERS\IVONA\DESKTOP\ECF_1.4.1\ECF_1.4.1\NEURALNETWORK\CROSSOVERS\CRSLAYER.CPP|C:\USERS\IVONA\DESKTOP\ECF_1.4.1\ECF_1.4.1\NEURALNETWORK\CROSSOVERS\CRSNEURON.CPP|C:\USERS\IVONA\DESKTOP\ECF_1.4.1\ECF_1.4.1\NEURALNETWORK\CROSSOVERS\CRSNEURONUNIFORM.CPP|C:\USERS\IVONA\DESKTOP\ECF_1.4.1\ECF_1.4.1\NEURALNETWORK\FUNCTIONMINEVALOP.CPP|C:\USERS\IVONA\DESKTOP\ECF_1.4.1\ECF_1.4.1\NEURALNETWORK\GPSPACEFLIGHT-NN\SPACEFLIGHT.GP\MAIN.CPP|C:\USERS\IVONA\DESKTOP\ECF_1.4.1\ECF_1.4.1\NEURALNETWORK\MUTATIONS\MUTNEURON.CPP|C:\USERS\IVONA\DESKTOP\ECF_1.4.1\ECF_1.4.1\NEURALNETWORK\MUTATIONS\MUTNEURONN.CPP|C:\USERS\IVONA\DESKTOP\ECF_1.4.1\ECF_1.4.1\NEURALNETWORK\MUTATIONS\MUTSCALE.CPP|C:\USERS\IVONA\DESKTOP\ECF_1.4.1\ECF_1.4.1\NEURALNETWORK\NEURALNETWORK.CPP
C:\USERS\IVONA\DESKTOP\ECF_1.4.1\ECF_1.4.1\NEURALNETWORK\GPSPACEFLIGHT-NN\SPACEFLIGHT.GP\DEBUG\VC140.PDB
C:\USERS\IVONA\DESKTOP\ECF_1.4.1\ECF_1.4.1\NEURALNETWORK\GPSPACEFLIGHT-NN\SPACEFLIGHT.GP\DEBUG\MAIN.OBJ
C:\USERS\IVONA\DESKTOP\ECF_1.4.1\ECF_1.4.1\NEURALNETWORK\GPSPACEFLIGHT-NN\SPACEFLIGHT.GP\DEBUG\NEURALNETWORK.OBJ
C:\USERS\IVONA\DESKTOP\ECF_1.4.1\ECF_1.4.1\NEURALNETWORK\GPSPACEFLIGHT-NN\SPACEFLIGHT.GP\DEBUG\MUTSCALE.OBJ
C:\USERS\IVONA\DESKTOP\ECF_1.4.1\ECF_1.4.1\NEURALNETWORK\GPSPACEFLIGHT-NN\SPACEFLIGHT.GP\DEBUG\MUTNEURONN.OBJ
C:\USERS\IVONA\DESKTOP\ECF_1.4.1\ECF_1.4.1\NEURALNETWORK\GPSPACEFLIGHT-NN\SPACEFLIGHT.GP\DEBUG\MUTNEURON.OBJ
C:\USERS\IVONA\DESKTOP\ECF_1.4.1\ECF_1.4.1\NEURALNETWORK\GPSPACEFLIGHT-NN\SPACEFLIGHT.GP\DEBUG\FUNCTIONMINEVALOP.OBJ
C:\USERS\IVONA\DESKTOP\ECF_1.4.1\ECF_1.4.1\NEURALNETWORK\GPSPACEFLIGHT-NN\SPACEFLIGHT.GP\DEBUG\CRSNEURONUNIFORM.OBJ
C:\USERS\IVONA\DESKTOP\ECF_1.4.1\ECF_1.4.1\NEURALNETWORK\GPSPACEFLIGHT-NN\SPACEFLIGHT.GP\DEBUG\CRSNEURON.OBJ
C:\USERS\IVONA\DESKTOP\ECF_1.4.1\ECF_1.4.1\NEURALNETWORK\GPSPACEFLIGHT-NN\SPACEFLIGHT.GP\DEBUG\CRSLAYER.OBJ
C:\USERS\IVONA\DESKTOP\ECF_1.4.1\ECF_1.4.1\NEURALNETWORK\GPSPACEFLIGHT-NN\SPACEFLIGHT.GP\DEBUG\SINEFUNCTION.OBJ
C:\USERS\IVONA\DESKTOP\ECF_1.4.1\ECF_1.4.1\NEURALNETWORK\GPSPACEFLIGHT-NN\SPACEFLIGHT.GP\DEBUG\SIGMOIDFUNCTION.OBJ
C:\USERS\IVONA\DESKTOP\ECF_1.4.1\ECF_1.4.1\NEURALNETWORK\GPSPACEFLIGHT-NN\SPACEFLIGHT.GP\DEBUG\LINEARFUNCTION.OBJ
^C:\USERS\IVONA\DESKTOP\ECF_1.4.1\ECF_1.4.1\NEURALNETWORK\ACTIVATIONFUNCTIONS\LINEARFUNCTION.CPP
C:\USERS\IVONA\DESKTOP\ECF_1.4.1\ECF_1.4.1\NEURALNETWORK\GPSPACEFLIGHT-NN\SPACEFLIGHT.GP\DEBUG\VC140.PDB
^C:\USERS\IVONA\DESKTOP\ECF_1.4.1\ECF_1.4.1\NEURALNETWORK\ACTIVATIONFUNCTIONS\SIGMOIDFUNCTION.CPP
C:\USERS\IVONA\DESKTOP\ECF_1.4.1\ECF_1.4.1\NEURALNETWORK\GPSPACEFLIGHT-NN\SPACEFLIGHT.GP\DEBUG\VC140.PDB
^C:\USERS\IVONA\DESKTOP\ECF_1.4.1\ECF_1.4.1\NEURALNETWORK\ACTIVATIONFUNCTIONS\SINEFUNCTION.CPP
C:\USERS\IVONA\DESKTOP\ECF_1.4.1\ECF_1.4.1\NEURALNETWORK\GPSPACEFLIGHT-NN\SPACEFLIGHT.GP\DEBUG\VC140.PDB
^C:\USERS\IVONA\DESKTOP\ECF_1.4.1\ECF_1.4.1\NEURALNETWORK\CROSSOVERS\CRSLAYER.CPP
C:\USERS\IVONA\DESKTOP\ECF_1.4.1\ECF_1.4.1\NEURALNETWORK\GPSPACEFLIGHT-NN\SPACEFLIGHT.GP\DEBUG\VC140.PDB
^C:\USERS\IVONA\DESKTOP\ECF_1.4.1\ECF_1.4.1\NEURALNETWORK\CROSSOVERS\CRSNEURON.CPP
C:\USERS\IVONA\DESKTOP\ECF_1.4.1\ECF_1.4.1\NEURALNETWORK\GPSPACEFLIGHT-NN\SPACEFLIGHT.GP\DEBUG\VC140.PDB
^C:\USERS\IVONA\DESKTOP\ECF_1.4.1\ECF_1.4.1\NEURALNETWORK\CROSSOVERS\CRSNEURONUNIFORM.CPP
C:\USERS\IVONA\DESKTOP\ECF_1.4.1\ECF_1.4.1\NEURALNETWORK\GPSPACEFLIGHT-NN\SPACEFLIGHT.GP\DEBUG\VC140.PDB
^C:\USERS\IVONA\DESKTOP\ECF_1.4.1\ECF_1.4.1\NEURALNETWORK\FUNCTIONMINEVALOP.CPP
C:\USERS\IVONA\DESKTOP\ECF_1.4.1\ECF_1.4.1\NEURALNETWORK\GPSPACEFLIGHT-NN\SPACEFLIGHT.GP\DEBUG\VC140.PDB
^C:\USERS\IVONA\DESKTOP\ECF_1.4.1\ECF_1.4.1\NEURALNETWORK\MUTATIONS\MUTNEURON.CPP
C:\USERS\IVONA\DESKTOP\ECF_1.4.1\ECF_1.4.1\NEURALNETWORK\GPSPACEFLIGHT-NN\SPACEFLIGHT.GP\DEBUG\VC140.PDB
^C:\USERS\IVONA\DESKTOP\ECF_1.4.1\ECF_1.4.1\NEURALNETWORK\MUTATIONS\MUTNEURONN.CPP
C:\USERS\IVONA\DESKTOP\ECF_1.4.1\ECF_1.4.1\NEURALNETWORK\GPSPACEFLIGHT-NN\SPACEFLIGHT.GP\DEBUG\VC140.PDB
^C:\USERS\IVONA\DESKTOP\ECF_1.4.1\ECF_1.4.1\NEURALNETWORK\MUTATIONS\MUTSCALE.CPP
C:\USERS\IVONA\DESKTOP\ECF_1.4.1\ECF_1.4.1\NEURALNETWORK\GPSPACEFLIGHT-NN\SPACEFLIGHT.GP\DEBUG\VC140.PDB
^C:\USERS\IVONA\DESKTOP\ECF_1.4.1\ECF_1.4.1\NEURALNETWORK\NEURALNETWORK.CPP
C:\USERS\IVONA\DESKTOP\ECF_1.4.1\ECF_1.4.1\NEURALNETWORK\GPSPACEFLIGHT-NN\SPACEFLIGHT.GP\DEBUG\VC140.PDB
^C:\USERS\IVONA\DESKTOP\ECF_1.4.1\ECF_1.4.1\NEURALNETWORK\GPSPACEFLIGHT-NN\SPACEFLIGHT.GP\MAIN.CPP
C:\USERS\IVONA\DESKTOP\ECF_1.4.1\ECF_1.4.1\NEURALNETWORK\GPSPACEFLIGHT-NN\SPACEFLIGHT.GP\DEBUG\VC140.PDB
^C:\USERS\IVONA\APPDATA\LOCAL\TEMP\.NETFRAMEWORK,VERSION=V4.5.2.ASSEMBLYATTRIBUTES.CPP
C:\USERS\IVONA\DESKTOP\ECF_1.4.1\ECF_1.4.1\NEURALNETWORK\GPSPACEFLIGHT-NN\SPACEFLIGHT.GP\DEBUG\VC140.PDB
C:\USERS\IVONA\DESKTOP\ECF_1.4.1\ECF_1.4.1\NEURALNETWORK\GPSPACEFLIGHT-NN\SPACEFLIGHT.GP\DEBUG\.NETFRAMEWORK,VERSION=V4.5.2.ASSEMBLYATTRIBUTES.OBJ
C:\USERS\IVONA\DESKTOP\ECF_1.4.1\ECF_1.4.1\NEURALNETWORK\GPSPACEFLIGHT-NN\SPACEFLIGHT.GP\DEBUG\.NETFRAMEWORK,VERSION=V4.5.2.ASSEMBLYATTRIBUTES.ASM
