^C:\USERS\IVONA\DESKTOP\ECF_1.4.1\ECF_1.4.1\EXAMPLES\GPSPACEFLIGHT\SPACEFLIGHT.GP\DEBUG\.NETFRAMEWORK,VERSION=V4.5.2.ASSEMBLYATTRIBUTES.OBJ|C:\USERS\IVONA\DESKTOP\ECF_1.4.1\ECF_1.4.1\EXAMPLES\GPSPACEFLIGHT\SPACEFLIGHT.GP\DEBUG\MAIN.OBJ
/OUT:"C:\USERS\IVONA\DESKTOP\ECF_1.4.1\ECF_1.4.1\EXAMPLES\GPSPACEFLIGHT\DEBUG\SPACEFLIGHT.GP.EXE" /INCREMENTAL:NO /NOLOGO /LIBPATH:..\..\..\DEBUG ECF.LIB KERNEL32.LIB USER32.LIB GDI32.LIB WINSPOOL.LIB COMDLG32.LIB ADVAPI32.LIB SHELL32.LIB OLE32.LIB OLEAUT32.LIB UUID.LIB ODBC32.LIB ODBCCP32.LIB /MANIFEST /MANIFESTUAC:"level='asInvoker' uiAccess='false'" /manifest:embed /DEBUG /PDB:"C:\USERS\IVONA\DESKTOP\ECF_1.4.1\ECF_1.4.1\EXAMPLES\GPSPACEFLIGHT\DEBUG\SPACEFLIGHT.GP.PDB" /ASSEMBLYDEBUG /TLBID:1 /DYNAMICBASE /FIXED:NO /NXCOMPAT /MACHINE:X86 DEBUG\MAIN.OBJ"DEBUG\.NETFRAMEWORK,VERSION=V4.5.2.ASSEMBLYATTRIBUTES.OBJ"
^C:\USERS\IVONA\DESKTOP\ECF_1.4.1\ECF_1.4.1\NEURALNETWORK\GPSPACEFLIGHT-NN\SPACEFLIGHT.GP\DEBUG\.NETFRAMEWORK,VERSION=V4.5.2.ASSEMBLYATTRIBUTES.OBJ|C:\USERS\IVONA\DESKTOP\ECF_1.4.1\ECF_1.4.1\NEURALNETWORK\GPSPACEFLIGHT-NN\SPACEFLIGHT.GP\DEBUG\CRSLAYER.OBJ|C:\USERS\IVONA\DESKTOP\ECF_1.4.1\ECF_1.4.1\NEURALNETWORK\GPSPACEFLIGHT-NN\SPACEFLIGHT.GP\DEBUG\CRSNEURON.OBJ|C:\USERS\IVONA\DESKTOP\ECF_1.4.1\ECF_1.4.1\NEURALNETWORK\GPSPACEFLIGHT-NN\SPACEFLIGHT.GP\DEBUG\CRSNEURONUNIFORM.OBJ|C:\USERS\IVONA\DESKTOP\ECF_1.4.1\ECF_1.4.1\NEURALNETWORK\GPSPACEFLIGHT-NN\SPACEFLIGHT.GP\DEBUG\FUNCTIONMINEVALOP.OBJ|C:\USERS\IVONA\DESKTOP\ECF_1.4.1\ECF_1.4.1\NEURALNETWORK\GPSPACEFLIGHT-NN\SPACEFLIGHT.GP\DEBUG\LINEARFUNCTION.OBJ|C:\USERS\IVONA\DESKTOP\ECF_1.4.1\ECF_1.4.1\NEURALNETWORK\GPSPACEFLIGHT-NN\SPACEFLIGHT.GP\DEBUG\MAIN.OBJ|C:\USERS\IVONA\DESKTOP\ECF_1.4.1\ECF_1.4.1\NEURALNETWORK\GPSPACEFLIGHT-NN\SPACEFLIGHT.GP\DEBUG\MUTNEURON.OBJ|C:\USERS\IVONA\DESKTOP\ECF_1.4.1\ECF_1.4.1\NEURALNETWORK\GPSPACEFLIGHT-NN\SPACEFLIGHT.GP\DEBUG\MUTNEURONN.OBJ|C:\USERS\IVONA\DESKTOP\ECF_1.4.1\ECF_1.4.1\NEURALNETWORK\GPSPACEFLIGHT-NN\SPACEFLIGHT.GP\DEBUG\MUTSCALE.OBJ|C:\USERS\IVONA\DESKTOP\ECF_1.4.1\ECF_1.4.1\NEURALNETWORK\GPSPACEFLIGHT-NN\SPACEFLIGHT.GP\DEBUG\NEURALNETWORK.OBJ|C:\USERS\IVONA\DESKTOP\ECF_1.4.1\ECF_1.4.1\NEURALNETWORK\GPSPACEFLIGHT-NN\SPACEFLIGHT.GP\DEBUG\SIGMOIDFUNCTION.OBJ|C:\USERS\IVONA\DESKTOP\ECF_1.4.1\ECF_1.4.1\NEURALNETWORK\GPSPACEFLIGHT-NN\SPACEFLIGHT.GP\DEBUG\SINEFUNCTION.OBJ
/OUT:"C:\USERS\IVONA\DESKTOP\ECF_1.4.1\ECF_1.4.1\NEURALNETWORK\GPSPACEFLIGHT-NN\DEBUG\SPACEFLIGHT.GP.EXE" /INCREMENTAL:NO /NOLOGO /LIBPATH:C:\USERS\IVONA\DESKTOP\ECF_1.4.1\ECF_1.4.1\DEBUG ECF.LIB KERNEL32.LIB USER32.LIB GDI32.LIB WINSPOOL.LIB COMDLG32.LIB ADVAPI32.LIB SHELL32.LIB OLE32.LIB OLEAUT32.LIB UUID.LIB ODBC32.LIB ODBCCP32.LIB /MANIFEST /MANIFESTUAC:"level='asInvoker' uiAccess='false'" /manifest:embed /DEBUG /PDB:"C:\USERS\IVONA\DESKTOP\ECF_1.4.1\ECF_1.4.1\NEURALNETWORK\GPSPACEFLIGHT-NN\DEBUG\SPACEFLIGHT.GP.PDB" /ASSEMBLYDEBUG /TLBID:1 /DYNAMICBASE /FIXED:NO /NXCOMPAT /MACHINE:X86 DEBUG\LINEARFUNCTION.OBJDEBUG\SIGMOIDFUNCTION.OBJDEBUG\SINEFUNCTION.OBJDEBUG\CRSLAYER.OBJDEBUG\CRSNEURON.OBJDEBUG\CRSNEURONUNIFORM.OBJDEBUG\FUNCTIONMINEVALOP.OBJDEBUG\MUTNEURON.OBJDEBUG\MUTNEURONN.OBJDEBUG\MUTSCALE.OBJDEBUG\NEURALNETWORK.OBJDEBUG\MAIN.OBJ"DEBUG\.NETFRAMEWORK,VERSION=V4.5.2.ASSEMBLYATTRIBUTES.OBJ"
